{
  "name": "dreamjob-app-e2e",
  "$schema": "../node_modules/nx/schemas/project-schema.json",
  "projectType": "application",
  "sourceRoot": "dreamjob-app-e2e/src",
  "targets": {
    "e2e": {
      "executor": "@nx/playwright:playwright",
      "outputs": ["{workspaceRoot}/dist/.playwright/dreamjob-app-e2e"],
      "options": {
        "config": "dreamjob-app-e2e/playwright.config.ts"
      }
    },
    "lint": {
      "executor": "@nx/eslint:lint",
      "outputs": ["{options.outputFile}"],
      "options": {
        "lintFilePatterns": ["dreamjob-app-e2e/**/*.{js,ts}"]
      }
    }
  },
  "implicitDependencies": ["dreamjob-app"]
}
